EESchema Schematic File Version 2
LIBS:cb500x_indicator-rescue
LIBS:power
LIBS:device
LIBS:transistors
LIBS:conn
LIBS:linear
LIBS:regul
LIBS:74xx
LIBS:cmos4000
LIBS:adc-dac
LIBS:memory
LIBS:xilinx
LIBS:microcontrollers
LIBS:dsp
LIBS:microchip
LIBS:analog_switches
LIBS:motorola
LIBS:texas
LIBS:intel
LIBS:audio
LIBS:interface
LIBS:digital-audio
LIBS:philips
LIBS:display
LIBS:cypress
LIBS:siliconi
LIBS:opto
LIBS:atmel
LIBS:contrib
LIBS:valves
LIBS:gary
LIBS:switches
LIBS:74xgxx
LIBS:ac-dc
LIBS:actel
LIBS:allegro
LIBS:Altera
LIBS:analog_devices
LIBS:battery_management
LIBS:bbd
LIBS:bosch
LIBS:brooktre
LIBS:cmos_ieee
LIBS:dc-dc
LIBS:diode
LIBS:elec-unifil
LIBS:ESD_Protection
LIBS:ftdi
LIBS:gennum
LIBS:hc11
LIBS:ir
LIBS:Lattice
LIBS:leds
LIBS:maxim
LIBS:mechanical
LIBS:microchip_dspic33dsc
LIBS:microchip_pic10mcu
LIBS:microchip_pic12mcu
LIBS:microchip_pic16mcu
LIBS:microchip_pic18mcu
LIBS:microchip_pic24mcu
LIBS:microchip_pic32mcu
LIBS:modules
LIBS:motor_drivers
LIBS:motors
LIBS:msp430
LIBS:nordicsemi
LIBS:nxp
LIBS:nxp_armmcu
LIBS:onsemi
LIBS:Oscillators
LIBS:powerint
LIBS:Power_Management
LIBS:pspice
LIBS:references
LIBS:relays
LIBS:rfcom
LIBS:sensors
LIBS:silabs
LIBS:stm8
LIBS:stm32
LIBS:supertex
LIBS:transf
LIBS:triac_thyristor
LIBS:ttl_ieee
LIBS:video
LIBS:wiznet
LIBS:Worldsemi
LIBS:Xicor
LIBS:zetex
LIBS:Zilog
LIBS:cb500x_indicator
LIBS:cb500x_indicator-cache
EELAYER 25 0
EELAYER END
$Descr A4 11693 8268
encoding utf-8
Sheet 1 1
Title "CB500X Gear/Temperature Indicator"
Date "2018-07-25"
Rev ""
Comp ""
Comment1 "Copyright: Gary Servin | 2018"
Comment2 ""
Comment3 ""
Comment4 ""
$EndDescr
$Comp
L ATMEGA328P-AU U1
U 1 1 58F4DA61
P 4700 4200
F 0 "U1" H 3950 5450 50  0000 L BNN
F 1 "ATMEGA328P-AU" H 5100 2800 50  0000 L BNN
F 2 "Housings_QFP:TQFP-32_7x7mm_Pitch0.8mm" H 4700 4200 50  0001 C CIN
F 3 "" H 4700 4200 50  0001 C CNN
	1    4700 4200
	1    0    0    -1  
$EndComp
$Comp
L CONN_01X04 J1
U 1 1 58F4DB70
P 7850 5100
F 0 "J1" H 7850 5350 50  0000 C CNN
F 1 "CONN_01X04" V 7950 5100 50  0000 C CNN
F 2 "cb500x_indicator:OLED_1.3" H 7850 5100 50  0001 C CNN
F 3 "" H 7850 5100 50  0001 C CNN
	1    7850 5100
	1    0    0    -1  
$EndComp
$Comp
L +5V #PWR01
U 1 1 58F4DCBD
P 7600 4900
F 0 "#PWR01" H 7600 4750 50  0001 C CNN
F 1 "+5V" H 7600 5040 50  0000 C CNN
F 2 "" H 7600 4900 50  0001 C CNN
F 3 "" H 7600 4900 50  0001 C CNN
	1    7600 4900
	1    0    0    -1  
$EndComp
Text GLabel 7600 5250 0    60   BiDi ~ 0
SDA
Text GLabel 7600 5150 0    60   Input ~ 0
SCL
$Comp
L GND #PWR02
U 1 1 58F4DD8A
P 7550 5050
F 0 "#PWR02" H 7550 4800 50  0001 C CNN
F 1 "GND" H 7550 4900 50  0000 C CNN
F 2 "" H 7550 5050 50  0001 C CNN
F 3 "" H 7550 5050 50  0001 C CNN
	1    7550 5050
	0    1    1    0   
$EndComp
Text GLabel 5800 4350 2    39   BiDi ~ 0
SDA
Text GLabel 5800 4450 2    39   Output ~ 0
SCL
$Comp
L GND #PWR03
U 1 1 58F4E229
P 3750 5450
F 0 "#PWR03" H 3750 5200 50  0001 C CNN
F 1 "GND" H 3750 5300 50  0000 C CNN
F 2 "" H 3750 5450 50  0001 C CNN
F 3 "" H 3750 5450 50  0001 C CNN
	1    3750 5450
	1    0    0    -1  
$EndComp
$Comp
L +5V #PWR04
U 1 1 58F4E367
P 3750 3050
F 0 "#PWR04" H 3750 2900 50  0001 C CNN
F 1 "+5V" H 3750 3190 50  0000 C CNN
F 2 "" H 3750 3050 50  0001 C CNN
F 3 "" H 3750 3050 50  0001 C CNN
	1    3750 3050
	1    0    0    -1  
$EndComp
$Comp
L MMC33290 IC1
U 1 1 58F4F32A
P 7400 4000
F 0 "IC1" H 7250 4300 60  0000 C CNN
F 1 "MMC33290" H 7400 3700 60  0000 C CNN
F 2 "Housings_SOIC:SOIC-8_3.9x4.9mm_Pitch1.27mm" H 7400 4000 60  0001 C CNN
F 3 "" H 7400 4000 60  0001 C CNN
	1    7400 4000
	1    0    0    -1  
$EndComp
$Comp
L +12V #PWR05
U 1 1 58F4F423
P 7050 3800
F 0 "#PWR05" H 7050 3650 50  0001 C CNN
F 1 "+12V" H 7050 3940 50  0000 C CNN
F 2 "" H 7050 3800 50  0001 C CNN
F 3 "" H 7050 3800 50  0001 C CNN
	1    7050 3800
	1    0    0    -1  
$EndComp
$Comp
L GND #PWR06
U 1 1 58F4F4B0
P 7050 4050
F 0 "#PWR06" H 7050 3800 50  0001 C CNN
F 1 "GND" H 7050 3900 50  0000 C CNN
F 2 "" H 7050 4050 50  0001 C CNN
F 3 "" H 7050 4050 50  0001 C CNN
	1    7050 4050
	0    1    1    0   
$EndComp
Text GLabel 7050 4150 0    60   Input ~ 0
ISO
$Comp
L +5V #PWR07
U 1 1 58F4F611
P 7750 3800
F 0 "#PWR07" H 7750 3650 50  0001 C CNN
F 1 "+5V" H 7750 3940 50  0000 C CNN
F 2 "" H 7750 3800 50  0001 C CNN
F 3 "" H 7750 3800 50  0001 C CNN
	1    7750 3800
	1    0    0    -1  
$EndComp
Text GLabel 7750 4150 2    60   Input ~ 0
K_LINE_RX/MISO
Text GLabel 7750 4050 2    60   Input ~ 0
K_LINE_TX/SCK
Text GLabel 5850 3500 2    39   Input ~ 0
K_LINE_RX/MISO
Text GLabel 5850 3600 2    39   Input ~ 0
K_LINE_TX/SCK
$Comp
L +12V #PWR08
U 1 1 58F5017B
P 7000 1500
F 0 "#PWR08" H 7000 1350 50  0001 C CNN
F 1 "+12V" H 7000 1640 50  0000 C CNN
F 2 "" H 7000 1500 50  0001 C CNN
F 3 "" H 7000 1500 50  0001 C CNN
	1    7000 1500
	1    0    0    -1  
$EndComp
$Comp
L +5V #PWR09
U 1 1 58F50241
P 7700 1500
F 0 "#PWR09" H 7700 1350 50  0001 C CNN
F 1 "+5V" H 7700 1640 50  0000 C CNN
F 2 "" H 7700 1500 50  0001 C CNN
F 3 "" H 7700 1500 50  0001 C CNN
	1    7700 1500
	1    0    0    -1  
$EndComp
$Comp
L GND #PWR010
U 1 1 58F50311
P 7350 1950
F 0 "#PWR010" H 7350 1700 50  0001 C CNN
F 1 "GND" H 7350 1800 50  0000 C CNN
F 2 "" H 7350 1950 50  0001 C CNN
F 3 "" H 7350 1950 50  0001 C CNN
	1    7350 1950
	1    0    0    -1  
$EndComp
$Comp
L PWR_FLAG #FLG011
U 1 1 58F505A4
P 7000 1600
F 0 "#FLG011" H 7000 1675 50  0001 C CNN
F 1 "PWR_FLAG" H 7000 1750 50  0000 C CNN
F 2 "" H 7000 1600 50  0001 C CNN
F 3 "" H 7000 1600 50  0001 C CNN
	1    7000 1600
	-1   0    0    1   
$EndComp
$Comp
L CONN_01X03 J2
U 1 1 58F507B5
P 8400 3400
F 0 "J2" H 8400 3600 50  0000 C CNN
F 1 "CONN_01X03" V 8500 3400 50  0000 C CNN
F 2 "Pin_Headers:Pin_Header_Angled_1x03_Pitch2.54mm" H 8400 3400 50  0001 C CNN
F 3 "" H 8400 3400 50  0001 C CNN
	1    8400 3400
	1    0    0    1   
$EndComp
$Comp
L +12V #PWR012
U 1 1 58F508B7
P 8150 2900
F 0 "#PWR012" H 8150 2750 50  0001 C CNN
F 1 "+12V" H 8150 3040 50  0000 C CNN
F 2 "" H 8150 2900 50  0001 C CNN
F 3 "" H 8150 2900 50  0001 C CNN
	1    8150 2900
	1    0    0    -1  
$EndComp
$Comp
L GND #PWR013
U 1 1 58F508D1
P 8150 3550
F 0 "#PWR013" H 8150 3300 50  0001 C CNN
F 1 "GND" H 8150 3400 50  0000 C CNN
F 2 "" H 8150 3550 50  0001 C CNN
F 3 "" H 8150 3550 50  0001 C CNN
	1    8150 3550
	1    0    0    -1  
$EndComp
Text GLabel 8100 3400 0    60   Input ~ 0
ISO
NoConn ~ 5700 3300
NoConn ~ 5700 3950
NoConn ~ 5700 4050
NoConn ~ 5700 4150
NoConn ~ 5700 4250
NoConn ~ 5700 5000
NoConn ~ 5700 5100
NoConn ~ 5700 5200
NoConn ~ 5700 5300
NoConn ~ 5700 5400
NoConn ~ 5700 4900
NoConn ~ 3800 4450
NoConn ~ 3800 4550
$Comp
L PWR_FLAG #FLG014
U 1 1 58F50DE1
P 7300 1900
F 0 "#FLG014" H 7300 1975 50  0001 C CNN
F 1 "PWR_FLAG" H 7300 2050 50  0000 C CNN
F 2 "" H 7300 1900 50  0001 C CNN
F 3 "" H 7300 1900 50  0001 C CNN
	1    7300 1900
	0    -1   -1   0   
$EndComp
$Comp
L C C3
U 1 1 58F6C548
P 4950 2100
F 0 "C3" H 4975 2200 50  0000 L CNN
F 1 "C" H 4975 2000 50  0000 L CNN
F 2 "Capacitors_SMD:C_0603" H 4988 1950 50  0001 C CNN
F 3 "" H 4950 2100 50  0001 C CNN
	1    4950 2100
	1    0    0    -1  
$EndComp
$Comp
L C C2
U 1 1 58F6C5BD
P 4750 2100
F 0 "C2" H 4775 2200 50  0000 L CNN
F 1 "C" H 4775 2000 50  0000 L CNN
F 2 "Capacitors_SMD:C_0603" H 4788 1950 50  0001 C CNN
F 3 "" H 4750 2100 50  0001 C CNN
	1    4750 2100
	1    0    0    -1  
$EndComp
$Comp
L C C5
U 1 1 58F6C6F8
P 5350 2100
F 0 "C5" H 5375 2200 50  0000 L CNN
F 1 "C" H 5375 2000 50  0000 L CNN
F 2 "Capacitors_SMD:C_0603" H 5388 1950 50  0001 C CNN
F 3 "" H 5350 2100 50  0001 C CNN
	1    5350 2100
	1    0    0    -1  
$EndComp
$Comp
L C C6
U 1 1 58F6C72D
P 5550 2100
F 0 "C6" H 5575 2200 50  0000 L CNN
F 1 "C" H 5575 2000 50  0000 L CNN
F 2 "Capacitors_SMD:C_0603" H 5588 1950 50  0001 C CNN
F 3 "" H 5550 2100 50  0001 C CNN
	1    5550 2100
	1    0    0    -1  
$EndComp
$Comp
L GND #PWR015
U 1 1 58F6C89A
P 4750 2300
F 0 "#PWR015" H 4750 2050 50  0001 C CNN
F 1 "GND" H 4750 2150 50  0000 C CNN
F 2 "" H 4750 2300 50  0001 C CNN
F 3 "" H 4750 2300 50  0001 C CNN
	1    4750 2300
	1    0    0    -1  
$EndComp
$Comp
L GND #PWR016
U 1 1 58F6C90B
P 4950 2300
F 0 "#PWR016" H 4950 2050 50  0001 C CNN
F 1 "GND" H 4950 2150 50  0000 C CNN
F 2 "" H 4950 2300 50  0001 C CNN
F 3 "" H 4950 2300 50  0001 C CNN
	1    4950 2300
	1    0    0    -1  
$EndComp
$Comp
L +12V #PWR017
U 1 1 58F6C9B7
P 4750 1900
F 0 "#PWR017" H 4750 1750 50  0001 C CNN
F 1 "+12V" H 4750 2040 50  0000 C CNN
F 2 "" H 4750 1900 50  0001 C CNN
F 3 "" H 4750 1900 50  0001 C CNN
	1    4750 1900
	1    0    0    -1  
$EndComp
$Comp
L +5V #PWR018
U 1 1 58F6C9DD
P 4950 1900
F 0 "#PWR018" H 4950 1750 50  0001 C CNN
F 1 "+5V" H 4950 2040 50  0000 C CNN
F 2 "" H 4950 1900 50  0001 C CNN
F 3 "" H 4950 1900 50  0001 C CNN
	1    4950 1900
	1    0    0    -1  
$EndComp
$Comp
L CP C1
U 1 1 58F6CADF
P 4550 2100
F 0 "C1" H 4575 2200 50  0000 L CNN
F 1 "CP" H 4575 2000 50  0000 L CNN
F 2 "Capacitors_Tantalum_SMD:CP_Tantalum_Case-A_EIA-3216-18_Wave" H 4588 1950 50  0001 C CNN
F 3 "" H 4550 2100 50  0001 C CNN
	1    4550 2100
	1    0    0    -1  
$EndComp
$Comp
L CP C4
U 1 1 58F6CB3E
P 5150 2100
F 0 "C4" H 5175 2200 50  0000 L CNN
F 1 "CP" H 5175 2000 50  0000 L CNN
F 2 "Capacitors_Tantalum_SMD:CP_Tantalum_Case-A_EIA-3216-18_Wave" H 5188 1950 50  0001 C CNN
F 3 "" H 5150 2100 50  0001 C CNN
	1    5150 2100
	1    0    0    -1  
$EndComp
$Comp
L +12V #PWR019
U 1 1 58F6CB9F
P 4550 1900
F 0 "#PWR019" H 4550 1750 50  0001 C CNN
F 1 "+12V" H 4550 2040 50  0000 C CNN
F 2 "" H 4550 1900 50  0001 C CNN
F 3 "" H 4550 1900 50  0001 C CNN
	1    4550 1900
	1    0    0    -1  
$EndComp
$Comp
L +5V #PWR020
U 1 1 58F6CBD6
P 5150 1900
F 0 "#PWR020" H 5150 1750 50  0001 C CNN
F 1 "+5V" H 5150 2040 50  0000 C CNN
F 2 "" H 5150 1900 50  0001 C CNN
F 3 "" H 5150 1900 50  0001 C CNN
	1    5150 1900
	1    0    0    -1  
$EndComp
$Comp
L GND #PWR021
U 1 1 58F6CC02
P 4550 2300
F 0 "#PWR021" H 4550 2050 50  0001 C CNN
F 1 "GND" H 4550 2150 50  0000 C CNN
F 2 "" H 4550 2300 50  0001 C CNN
F 3 "" H 4550 2300 50  0001 C CNN
	1    4550 2300
	1    0    0    -1  
$EndComp
$Comp
L GND #PWR022
U 1 1 58F6CC2E
P 5150 2300
F 0 "#PWR022" H 5150 2050 50  0001 C CNN
F 1 "GND" H 5150 2150 50  0000 C CNN
F 2 "" H 5150 2300 50  0001 C CNN
F 3 "" H 5150 2300 50  0001 C CNN
	1    5150 2300
	1    0    0    -1  
$EndComp
$Comp
L GND #PWR023
U 1 1 58F6CEB1
P 5350 2300
F 0 "#PWR023" H 5350 2050 50  0001 C CNN
F 1 "GND" H 5350 2150 50  0000 C CNN
F 2 "" H 5350 2300 50  0001 C CNN
F 3 "" H 5350 2300 50  0001 C CNN
	1    5350 2300
	1    0    0    -1  
$EndComp
$Comp
L GND #PWR024
U 1 1 58F6CEDD
P 5550 2300
F 0 "#PWR024" H 5550 2050 50  0001 C CNN
F 1 "GND" H 5550 2150 50  0000 C CNN
F 2 "" H 5550 2300 50  0001 C CNN
F 3 "" H 5550 2300 50  0001 C CNN
	1    5550 2300
	1    0    0    -1  
$EndComp
$Comp
L +5V #PWR025
U 1 1 58F6D036
P 5350 1900
F 0 "#PWR025" H 5350 1750 50  0001 C CNN
F 1 "+5V" H 5350 2040 50  0000 C CNN
F 2 "" H 5350 1900 50  0001 C CNN
F 3 "" H 5350 1900 50  0001 C CNN
	1    5350 1900
	1    0    0    -1  
$EndComp
$Comp
L +5V #PWR026
U 1 1 58F6D0C5
P 5550 1900
F 0 "#PWR026" H 5550 1750 50  0001 C CNN
F 1 "+5V" H 5550 2040 50  0000 C CNN
F 2 "" H 5550 1900 50  0001 C CNN
F 3 "" H 5550 1900 50  0001 C CNN
	1    5550 1900
	1    0    0    -1  
$EndComp
NoConn ~ 3800 3700
Text GLabel 4550 6450 3    39   Input ~ 0
K_LINE_RX/MISO
Text GLabel 4650 6450 3    39   Input ~ 0
MOSI
Text GLabel 4450 6450 3    39   Input ~ 0
K_LINE_TX/SCK
Text GLabel 4750 6450 3    39   Input ~ 0
RESET
$Comp
L +5V #PWR027
U 1 1 5985E8BB
P 4350 6450
F 0 "#PWR027" H 4350 6300 50  0001 C CNN
F 1 "+5V" H 4350 6590 50  0000 C CNN
F 2 "" H 4350 6450 50  0001 C CNN
F 3 "" H 4350 6450 50  0001 C CNN
	1    4350 6450
	-1   0    0    1   
$EndComp
$Comp
L GND #PWR028
U 1 1 5985E90B
P 4850 6450
F 0 "#PWR028" H 4850 6200 50  0001 C CNN
F 1 "GND" H 4850 6300 50  0000 C CNN
F 2 "" H 4850 6450 50  0001 C CNN
F 3 "" H 4850 6450 50  0001 C CNN
	1    4850 6450
	1    0    0    -1  
$EndComp
Text GLabel 5800 4550 2    39   Input ~ 0
RESET
Text GLabel 5850 3400 2    39   Input ~ 0
MOSI
$Comp
L R R1
U 1 1 5985F875
P 5800 2100
F 0 "R1" V 5880 2100 50  0000 C CNN
F 1 "10K" V 5800 2100 50  0000 C CNN
F 2 "Resistors_SMD:R_0603_HandSoldering" V 5730 2100 50  0001 C CNN
F 3 "" H 5800 2100 50  0001 C CNN
	1    5800 2100
	1    0    0    -1  
$EndComp
$Comp
L +5V #PWR029
U 1 1 5985FA5A
P 5800 1900
F 0 "#PWR029" H 5800 1750 50  0001 C CNN
F 1 "+5V" H 5800 2040 50  0000 C CNN
F 2 "" H 5800 1900 50  0001 C CNN
F 3 "" H 5800 1900 50  0001 C CNN
	1    5800 1900
	1    0    0    -1  
$EndComp
Text GLabel 5800 2300 3    39   Input ~ 0
RESET
NoConn ~ 5700 3200
NoConn ~ 5700 3100
$Comp
L CONN_01X03 J4
U 1 1 59912BE9
P 7800 5650
F 0 "J4" H 7800 5850 50  0000 C CNN
F 1 "CONN_01X03" V 7900 5650 50  0000 C CNN
F 2 "Pin_Headers:Pin_Header_Angled_1x03_Pitch2.54mm" H 7800 5650 50  0001 C CNN
F 3 "" H 7800 5650 50  0001 C CNN
	1    7800 5650
	1    0    0    -1  
$EndComp
$Comp
L GND #PWR030
U 1 1 59912CC7
P 7550 5800
F 0 "#PWR030" H 7550 5550 50  0001 C CNN
F 1 "GND" H 7550 5650 50  0000 C CNN
F 2 "" H 7550 5800 50  0001 C CNN
F 3 "" H 7550 5800 50  0001 C CNN
	1    7550 5800
	1    0    0    -1  
$EndComp
Wire Wire Line
	7550 5750 7600 5750
Wire Wire Line
	7550 5800 7550 5750
Wire Wire Line
	5800 2250 5800 2300
Wire Wire Line
	5800 1900 5800 1950
Wire Wire Line
	5700 3500 5850 3500
Wire Wire Line
	5850 3600 5700 3600
Wire Wire Line
	5850 3400 5700 3400
Wire Wire Line
	5800 4550 5700 4550
Wire Wire Line
	3750 3050 3750 3400
Wire Wire Line
	5550 1900 5550 1950
Wire Wire Line
	5350 1900 5350 1950
Wire Wire Line
	5550 2250 5550 2300
Wire Wire Line
	5350 2250 5350 2300
Wire Wire Line
	5150 2250 5150 2300
Wire Wire Line
	4550 2250 4550 2300
Wire Wire Line
	4550 1900 4550 1950
Wire Wire Line
	5150 1900 5150 1950
Wire Wire Line
	4750 1900 4750 1950
Wire Wire Line
	4950 1900 4950 1950
Wire Wire Line
	4950 2250 4950 2300
Wire Wire Line
	4750 2250 4750 2300
Wire Wire Line
	7700 1500 7700 1550
Connection ~ 7350 1900
Wire Wire Line
	7300 1900 7350 1900
Wire Wire Line
	8150 3500 8150 3550
Wire Wire Line
	8200 3500 8150 3500
Wire Wire Line
	8200 3400 8100 3400
Wire Wire Line
	8150 3300 8200 3300
Wire Wire Line
	8150 3250 8150 3300
Connection ~ 7000 1550
Wire Wire Line
	7350 1850 7350 1950
Wire Wire Line
	7700 1550 7650 1550
Wire Wire Line
	7000 1550 7050 1550
Wire Wire Line
	7000 1500 7000 1600
Wire Wire Line
	7700 4050 7750 4050
Wire Wire Line
	7750 4150 7700 4150
Connection ~ 7750 3850
Wire Wire Line
	7750 3950 7700 3950
Wire Wire Line
	7750 3800 7750 3950
Wire Wire Line
	7700 3850 7750 3850
Wire Wire Line
	7050 4150 7100 4150
Wire Wire Line
	7050 4050 7100 4050
Wire Wire Line
	7050 3850 7050 3800
Wire Wire Line
	7100 3850 7050 3850
Connection ~ 3750 3200
Wire Wire Line
	3750 3400 3800 3400
Connection ~ 3750 3100
Wire Wire Line
	3750 3200 3800 3200
Wire Wire Line
	3750 3100 3800 3100
Connection ~ 3750 5300
Wire Wire Line
	3800 5200 3750 5200
Connection ~ 3750 5400
Wire Wire Line
	3800 5300 3750 5300
Wire Wire Line
	3750 5200 3750 5450
Wire Wire Line
	3750 5400 3800 5400
Wire Wire Line
	5800 4450 5700 4450
Wire Wire Line
	5800 4350 5700 4350
Wire Wire Line
	7650 5050 7550 5050
Wire Wire Line
	7650 5250 7600 5250
Wire Wire Line
	7600 5150 7650 5150
Wire Wire Line
	7600 4950 7650 4950
Wire Wire Line
	7600 4900 7600 4950
Text GLabel 5800 4700 2    60   Input ~ 0
RX_DEBUG
Text GLabel 5800 4800 2    60   Input ~ 0
TX_DEBUG
Wire Wire Line
	7550 5550 7600 5550
Wire Wire Line
	7600 5650 7550 5650
Wire Wire Line
	5800 4700 5700 4700
Wire Wire Line
	5700 4800 5800 4800
Text GLabel 7550 5650 0    60   Input ~ 0
RX_DEBUG
Text GLabel 7550 5550 0    60   Input ~ 0
TX_DEBUG
$Comp
L Conn_01x02 J6
U 1 1 59F4FB1A
P 6050 1100
F 0 "J6" H 6050 1200 50  0000 C CNN
F 1 "Conn_01x02" H 6050 900 50  0000 C CNN
F 2 "Pin_Headers:Pin_Header_Straight_1x02_Pitch2.54mm" H 6050 1100 50  0001 C CNN
F 3 "" H 6050 1100 50  0001 C CNN
	1    6050 1100
	-1   0    0    -1  
$EndComp
$Comp
L +12V #PWR033
U 1 1 59F4FCB5
P 6300 1050
F 0 "#PWR033" H 6300 900 50  0001 C CNN
F 1 "+12V" H 6300 1190 50  0000 C CNN
F 2 "" H 6300 1050 50  0001 C CNN
F 3 "" H 6300 1050 50  0001 C CNN
	1    6300 1050
	1    0    0    -1  
$EndComp
$Comp
L GND #PWR034
U 1 1 59F4FCF3
P 6300 1250
F 0 "#PWR034" H 6300 1000 50  0001 C CNN
F 1 "GND" H 6300 1100 50  0000 C CNN
F 2 "" H 6300 1250 50  0001 C CNN
F 3 "" H 6300 1250 50  0001 C CNN
	1    6300 1250
	1    0    0    -1  
$EndComp
$Comp
L Conn_01x06 J3
U 1 1 59F7D908
P 4550 6150
F 0 "J3" H 4550 6450 50  0000 C CNN
F 1 "Conn_01x06" H 4550 5750 50  0000 C CNN
F 2 "Pin_Headers:Pin_Header_Angled_1x06_Pitch2.54mm" H 4550 6150 50  0001 C CNN
F 3 "" H 4550 6150 50  0001 C CNN
	1    4550 6150
	0    -1   -1   0   
$EndComp
Wire Wire Line
	4350 6350 4350 6450
Wire Wire Line
	4450 6450 4450 6350
Wire Wire Line
	4550 6350 4550 6450
Wire Wire Line
	4650 6450 4650 6350
Wire Wire Line
	4750 6350 4750 6450
Wire Wire Line
	4850 6450 4850 6350
Text GLabel 5850 3700 2    39   Input ~ 0
XTAL1
Text GLabel 5850 3800 2    39   Input ~ 0
XTAL2
Wire Wire Line
	5850 3700 5700 3700
Wire Wire Line
	5700 3800 5850 3800
Wire Wire Line
	6250 1200 6300 1200
Wire Wire Line
	6300 1200 6300 1250
$Comp
L 1N4004 D1
U 1 1 5A1E2D89
P 8150 3100
F 0 "D1" H 8150 3200 50  0000 C CNN
F 1 "1N4004" H 8150 3000 50  0000 C CNN
F 2 "Diodes_SMD:D_SMA_Handsoldering" H 8150 2925 50  0001 C CNN
F 3 "" H 8150 3100 50  0001 C CNN
	1    8150 3100
	0    1    1    0   
$EndComp
Wire Wire Line
	6250 1100 6300 1100
Wire Wire Line
	6300 1100 6300 1050
Wire Wire Line
	8150 2900 8150 2950
NoConn ~ 5700 3700
NoConn ~ 5700 3800
NoConn ~ 3100 4900
$Comp
L LM1085-5.0 U2
U 1 1 5A20028F
P 7350 1550
F 0 "U2" H 7200 1675 50  0000 C CNN
F 1 "LM1085-5.0" H 7350 1675 50  0000 L CNN
F 2 "TO_SOT_Packages_SMD:TO-263-3_TabPin2" H 7350 1800 50  0001 C CIN
F 3 "" H 7350 1550 50  0001 C CNN
	1    7350 1550
	1    0    0    -1  
$EndComp
$EndSCHEMATC
