(export (version D)
  (design
    (source /home/gary/Dropbox/work/kicad/cb500x_indicator/cb500x_indicator.sch)
    (date "dom 03 jun 2018 13:30:12 -04")
    (tool "Eeschema 4.0.7-e2-6376~58~ubuntu16.04.1")
    (sheet (number 1) (name /) (tstamps /)
      (title_block
        (title)
        (company)
        (rev)
        (date "sam. 04 avril 2015")
        (source cb500x_indicator.sch)
        (comment (number 1) (value ""))
        (comment (number 2) (value ""))
        (comment (number 3) (value ""))
        (comment (number 4) (value "")))))
  (components
    (comp (ref U1)
      (value ATMEGA328P-AU)
      (footprint Housings_QFP:TQFP-32_7x7mm_Pitch0.8mm)
      (libsource (lib cb500x_indicator-cache) (part ATMEGA328P-AU))
      (sheetpath (names /) (tstamps /))
      (tstamp 58F4DA61))
    (comp (ref J1)
      (value CONN_01X04)
      (footprint cb500x_indicator:OLED_1.3)
      (libsource (lib cb500x_indicator-cache) (part CONN_01X04))
      (sheetpath (names /) (tstamps /))
      (tstamp 58F4DB70))
    (comp (ref IC1)
      (value MMC33290)
      (footprint Housings_SOIC:SOIC-8_3.9x4.9mm_Pitch1.27mm)
      (libsource (lib gary) (part MMC33290))
      (sheetpath (names /) (tstamps /))
      (tstamp 58F4F32A))
    (comp (ref J2)
      (value CONN_01X03)
      (footprint Pin_Headers:Pin_Header_Angled_1x03_Pitch2.54mm)
      (libsource (lib cb500x_indicator-cache) (part CONN_01X03))
      (sheetpath (names /) (tstamps /))
      (tstamp 58F507B5))
    (comp (ref C3)
      (value C)
      (footprint Capacitors_SMD:C_0603)
      (libsource (lib device) (part C))
      (sheetpath (names /) (tstamps /))
      (tstamp 58F6C548))
    (comp (ref C2)
      (value C)
      (footprint Capacitors_SMD:C_0603)
      (libsource (lib device) (part C))
      (sheetpath (names /) (tstamps /))
      (tstamp 58F6C5BD))
    (comp (ref C5)
      (value C)
      (footprint Capacitors_SMD:C_0603)
      (libsource (lib device) (part C))
      (sheetpath (names /) (tstamps /))
      (tstamp 58F6C6F8))
    (comp (ref C6)
      (value C)
      (footprint Capacitors_SMD:C_0603)
      (libsource (lib device) (part C))
      (sheetpath (names /) (tstamps /))
      (tstamp 58F6C72D))
    (comp (ref C1)
      (value CP)
      (footprint Capacitors_Tantalum_SMD:CP_Tantalum_Case-A_EIA-3216-18_Wave)
      (libsource (lib device) (part CP))
      (sheetpath (names /) (tstamps /))
      (tstamp 58F6CADF))
    (comp (ref C4)
      (value CP)
      (footprint Capacitors_Tantalum_SMD:CP_Tantalum_Case-A_EIA-3216-18_Wave)
      (libsource (lib device) (part CP))
      (sheetpath (names /) (tstamps /))
      (tstamp 58F6CB3E))
    (comp (ref R1)
      (value 10K)
      (footprint Resistors_SMD:R_0603_HandSoldering)
      (libsource (lib device) (part R))
      (sheetpath (names /) (tstamps /))
      (tstamp 5985F875))
    (comp (ref J4)
      (value CONN_01X03)
      (footprint Pin_Headers:Pin_Header_Angled_1x03_Pitch2.54mm)
      (libsource (lib cb500x_indicator-cache) (part CONN_01X03))
      (sheetpath (names /) (tstamps /))
      (tstamp 59912BE9))
    (comp (ref J6)
      (value Conn_01x02)
      (footprint Pin_Headers:Pin_Header_Straight_1x02_Pitch2.54mm)
      (libsource (lib conn) (part Conn_01x02))
      (sheetpath (names /) (tstamps /))
      (tstamp 59F4FB1A))
    (comp (ref J3)
      (value Conn_01x06)
      (footprint Pin_Headers:Pin_Header_Angled_1x06_Pitch2.54mm)
      (libsource (lib conn) (part Conn_01x06))
      (sheetpath (names /) (tstamps /))
      (tstamp 59F7D908))
    (comp (ref D1)
      (value 1N4004)
      (footprint Diodes_SMD:D_SMA_Handsoldering)
      (libsource (lib diode) (part 1N4004))
      (sheetpath (names /) (tstamps /))
      (tstamp 5A1E2D89))
    (comp (ref U2)
      (value LM1085-5.0)
      (footprint TO_SOT_Packages_SMD:TO-263-3_TabPin2)
      (libsource (lib regul) (part LM1085-5.0))
      (sheetpath (names /) (tstamps /))
      (tstamp 5A20028F)))
  (libparts
    (libpart (lib diode) (part 1N4001)
      (aliases
        (alias 1N4002)
        (alias 1N4003)
        (alias 1N4004)
        (alias 1N4005)
        (alias 1N4006)
        (alias 1N4007)
        (alias BA157)
        (alias BA158)
        (alias BA159))
      (description "50V 1A General Purpose Rectifier Diode, DO-41")
      (docs http://www.vishay.com/docs/88503/1n4001.pdf)
      (footprints
        (fp D*DO?41*)
        (fp D*DO?204AL*)
        (fp D*SOD81*))
      (fields
        (field (name Reference) D)
        (field (name Value) 1N4001)
        (field (name Footprint) Diodes_THT:D_DO-41_SOD81_Horizontal_RM10))
      (pins
        (pin (num 1) (name K) (type passive))
        (pin (num 2) (name A) (type passive))))
    (libpart (lib cb500x_indicator-cache) (part ATMEGA168A-AU)
      (aliases
        (alias ATMEGA48A-AU)
        (alias ATMEGA48PA-AU)
        (alias ATMEGA88A-AU)
        (alias ATMEGA88PA-AU)
        (alias ATMEGA168PA-AU)
        (alias ATMEGA328-AU)
        (alias ATMEGA328P-AU))
      (fields
        (field (name Reference) U)
        (field (name Value) ATMEGA168A-AU)
        (field (name Footprint) TQFP32))
      (pins
        (pin (num 1) (name "(PCINT19/OC2B/INT1)PD3") (type BiDi))
        (pin (num 2) (name "(PCINT20/XCK/T0)PD4") (type BiDi))
        (pin (num 3) (name GND) (type power_in))
        (pin (num 4) (name VCC) (type power_in))
        (pin (num 5) (name GND) (type power_in))
        (pin (num 6) (name VCC) (type power_in))
        (pin (num 7) (name "(PCINT6/XTAL1/TOSC1)PB6") (type BiDi))
        (pin (num 8) (name "(PCINT7/XTAL2/TOSC2)PB7") (type BiDi))
        (pin (num 9) (name "(PCINT21/OC0B/T1)PD5") (type BiDi))
        (pin (num 10) (name "(PCINT22/OC0A/AIN0)PD6") (type BiDi))
        (pin (num 11) (name "(PCINT23/AIN1)PD7") (type BiDi))
        (pin (num 12) (name "(PCINT0/CLKO/ICP1)PB0") (type BiDi))
        (pin (num 13) (name "(PCINT1/OC1A)PB1") (type BiDi))
        (pin (num 14) (name "(PCINT2/OC1B/~SS~)PB2") (type BiDi))
        (pin (num 15) (name "(PCINT3/OC2A/MOSI)PB3") (type BiDi))
        (pin (num 16) (name "(PCINT4/MISO)PB4") (type BiDi))
        (pin (num 17) (name "(PCINT5/SCK)PB5") (type BiDi))
        (pin (num 18) (name AVCC) (type power_in))
        (pin (num 19) (name ADC6) (type input))
        (pin (num 20) (name AREF) (type BiDi))
        (pin (num 21) (name GND) (type power_in))
        (pin (num 22) (name ADC7) (type input))
        (pin (num 23) (name "(PCINT8/ADC0)PC0") (type BiDi))
        (pin (num 24) (name "(PCINT9/ADC1)PC1") (type BiDi))
        (pin (num 25) (name "(PCINT10/ADC2)PC2") (type BiDi))
        (pin (num 26) (name "(PCINT11/ADC3)PC3") (type BiDi))
        (pin (num 27) (name "(PCINT12/SDA/ADC4)PC4") (type BiDi))
        (pin (num 28) (name "(PCINT13/SCL/ADC5)PC5") (type BiDi))
        (pin (num 29) (name "(PCINT14/~RESET~)PC6") (type BiDi))
        (pin (num 30) (name "(PCINT16/RXD)PD0") (type BiDi))
        (pin (num 31) (name "(PCINT17/TXD)PD1") (type BiDi))
        (pin (num 32) (name "(PCINT18/INT0)PD2") (type BiDi))))
    (libpart (lib device) (part C)
      (description "Unpolarized capacitor")
      (footprints
        (fp C_*))
      (fields
        (field (name Reference) C)
        (field (name Value) C))
      (pins
        (pin (num 1) (name ~) (type passive))
        (pin (num 2) (name ~) (type passive))))
    (libpart (lib cb500x_indicator-cache) (part CONN_01X03)
      (footprints
        (fp Pin_Header_Straight_1X*)
        (fp Pin_Header_Angled_1X*)
        (fp Socket_Strip_Straight_1X*)
        (fp Socket_Strip_Angled_1X*))
      (fields
        (field (name Reference) J)
        (field (name Value) CONN_01X03))
      (pins
        (pin (num 1) (name P1) (type passive))
        (pin (num 2) (name P2) (type passive))
        (pin (num 3) (name P3) (type passive))))
    (libpart (lib cb500x_indicator-cache) (part CONN_01X04)
      (footprints
        (fp Pin_Header_Straight_1X*)
        (fp Pin_Header_Angled_1X*)
        (fp Socket_Strip_Straight_1X*)
        (fp Socket_Strip_Angled_1X*))
      (fields
        (field (name Reference) J)
        (field (name Value) CONN_01X04))
      (pins
        (pin (num 1) (name P1) (type passive))
        (pin (num 2) (name P2) (type passive))
        (pin (num 3) (name P3) (type passive))
        (pin (num 4) (name P4) (type passive))))
    (libpart (lib device) (part CP)
      (description "Polarised capacitor")
      (footprints
        (fp CP_*))
      (fields
        (field (name Reference) C)
        (field (name Value) CP))
      (pins
        (pin (num 1) (name ~) (type passive))
        (pin (num 2) (name ~) (type passive))))
    (libpart (lib conn) (part Conn_01x02)
      (description "Generic connector, single row, 01x02")
      (docs ~)
      (footprints
        (fp Connector*:*_??x*mm*)
        (fp Connector*:*1x??x*mm*)
        (fp Pin?Header?Straight?1X*)
        (fp Pin?Header?Angled?1X*)
        (fp Socket?Strip?Straight?1X*)
        (fp Socket?Strip?Angled?1X*))
      (fields
        (field (name Reference) J)
        (field (name Value) Conn_01x02))
      (pins
        (pin (num 1) (name Pin_1) (type passive))
        (pin (num 2) (name Pin_2) (type passive))))
    (libpart (lib conn) (part Conn_01x06)
      (description "Generic connector, single row, 01x06")
      (docs ~)
      (footprints
        (fp Connector*:*_??x*mm*)
        (fp Connector*:*1x??x*mm*)
        (fp Pin?Header?Straight?1X*)
        (fp Pin?Header?Angled?1X*)
        (fp Socket?Strip?Straight?1X*)
        (fp Socket?Strip?Angled?1X*))
      (fields
        (field (name Reference) J)
        (field (name Value) Conn_01x06))
      (pins
        (pin (num 1) (name Pin_1) (type passive))
        (pin (num 2) (name Pin_2) (type passive))
        (pin (num 3) (name Pin_3) (type passive))
        (pin (num 4) (name Pin_4) (type passive))
        (pin (num 5) (name Pin_5) (type passive))
        (pin (num 6) (name Pin_6) (type passive))))
    (libpart (lib regul) (part LM1084-3.3)
      (aliases
        (alias LM1084-5.0)
        (alias LM1085-3.3)
        (alias LM1085-5.0)
        (alias LM1085-12)
        (alias LT1086-2.85)
        (alias LT1086-3.3)
        (alias LT1086-3.6)
        (alias LT1086-5.0)
        (alias LT1086-12)
        (alias LT1083-3.3)
        (alias LT1083-3.6)
        (alias LT1083-5.0)
        (alias LT1083-12)
        (alias LT1084-3.3)
        (alias LT1084-3.6)
        (alias LT1084-5.0)
        (alias LT1084-12)
        (alias LT1085-3.3)
        (alias LT1085-3.6)
        (alias LT1085-5.0)
        (alias LT1085-12))
      (description "5A 27V Linear Regulator, Fixed Output 3.3V, TO-220/TO-263")
      (docs http://www.ti.com/lit/ds/symlink/lm1084.pdf)
      (footprints
        (fp TO?220*)
        (fp TO?263*))
      (fields
        (field (name Reference) U)
        (field (name Value) LM1084-3.3))
      (pins
        (pin (num 1) (name GND) (type power_in))
        (pin (num 2) (name VO) (type power_out))
        (pin (num 3) (name VI) (type power_in))))
    (libpart (lib gary) (part MMC33290)
      (fields
        (field (name Reference) IC)
        (field (name Value) MMC33290))
      (pins
        (pin (num 1) (name VBB) (type power_in))
        (pin (num 2) (name NC) (type NotConnected))
        (pin (num 3) (name GND) (type power_in))
        (pin (num 4) (name ISO) (type BiDi))
        (pin (num 5) (name TX) (type input))
        (pin (num 6) (name RX) (type output))
        (pin (num 7) (name VDD) (type power_in))
        (pin (num 8) (name CEN) (type input))))
    (libpart (lib device) (part R)
      (description Resistor)
      (footprints
        (fp R_*)
        (fp R_*))
      (fields
        (field (name Reference) R)
        (field (name Value) R))
      (pins
        (pin (num 1) (name ~) (type passive))
        (pin (num 2) (name ~) (type passive)))))
  (libraries
    (library (logical device)
      (uri /usr/share/kicad/library/device.lib))
    (library (logical conn)
      (uri /usr/share/kicad/library/conn.lib))
    (library (logical regul)
      (uri /usr/share/kicad/library/regul.lib))
    (library (logical gary)
      (uri /home/gary/Dropbox/work/kicad/libraries/library/gary.lib))
    (library (logical diode)
      (uri /usr/share/kicad/library/diode.lib))
    (library (logical cb500x_indicator-cache)
      (uri /home/gary/Dropbox/work/kicad/cb500x_indicator/cb500x_indicator-cache.lib)))
  (nets
    (net (code 1) (name "Net-(D1-Pad2)")
      (node (ref J2) (pin 3))
      (node (ref D1) (pin 2)))
    (net (code 2) (name "Net-(U1-Pad20)")
      (node (ref U1) (pin 20)))
    (net (code 3) (name K_LINE_RX/MISO)
      (node (ref IC1) (pin 5))
      (node (ref U1) (pin 16))
      (node (ref J3) (pin 3)))
    (net (code 4) (name MOSI)
      (node (ref J3) (pin 4))
      (node (ref U1) (pin 15)))
    (net (code 5) (name K_LINE_TX/SCK)
      (node (ref U1) (pin 17))
      (node (ref IC1) (pin 6))
      (node (ref J3) (pin 2)))
    (net (code 6) (name GND)
      (node (ref J1) (pin 2))
      (node (ref IC1) (pin 3))
      (node (ref J6) (pin 2))
      (node (ref U1) (pin 21))
      (node (ref U2) (pin 1))
      (node (ref C4) (pin 2))
      (node (ref J2) (pin 1))
      (node (ref C3) (pin 2))
      (node (ref C2) (pin 2))
      (node (ref C5) (pin 2))
      (node (ref C6) (pin 2))
      (node (ref C1) (pin 2))
      (node (ref U1) (pin 5))
      (node (ref U1) (pin 3))
      (node (ref J4) (pin 3))
      (node (ref J3) (pin 6)))
    (net (code 7) (name +5V)
      (node (ref U1) (pin 4))
      (node (ref J3) (pin 1))
      (node (ref U1) (pin 6))
      (node (ref J1) (pin 1))
      (node (ref IC1) (pin 7))
      (node (ref IC1) (pin 8))
      (node (ref R1) (pin 1))
      (node (ref C3) (pin 1))
      (node (ref U1) (pin 18))
      (node (ref C5) (pin 1))
      (node (ref C6) (pin 1))
      (node (ref C4) (pin 1))
      (node (ref U2) (pin 2)))
    (net (code 8) (name ISO)
      (node (ref IC1) (pin 4))
      (node (ref J2) (pin 2)))
    (net (code 9) (name "Net-(U1-Pad13)")
      (node (ref U1) (pin 13)))
    (net (code 10) (name "Net-(U1-Pad12)")
      (node (ref U1) (pin 12)))
    (net (code 11) (name RESET)
      (node (ref J3) (pin 5))
      (node (ref R1) (pin 2))
      (node (ref U1) (pin 29)))
    (net (code 12) (name XTAL1)
      (node (ref U1) (pin 7)))
    (net (code 13) (name XTAL2)
      (node (ref U1) (pin 8)))
    (net (code 14) (name +12V)
      (node (ref C2) (pin 1))
      (node (ref D1) (pin 1))
      (node (ref U2) (pin 3))
      (node (ref J6) (pin 1))
      (node (ref IC1) (pin 1))
      (node (ref C1) (pin 1)))
    (net (code 16) (name SDA)
      (node (ref U1) (pin 27))
      (node (ref J1) (pin 4)))
    (net (code 17) (name SCL)
      (node (ref U1) (pin 28))
      (node (ref J1) (pin 3)))
    (net (code 18) (name RX_DEBUG)
      (node (ref U1) (pin 30))
      (node (ref J4) (pin 2)))
    (net (code 19) (name TX_DEBUG)
      (node (ref U1) (pin 31))
      (node (ref J4) (pin 1)))
    (net (code 20) (name "Net-(IC1-Pad2)")
      (node (ref IC1) (pin 2)))
    (net (code 21) (name "Net-(U1-Pad22)")
      (node (ref U1) (pin 22)))
    (net (code 22) (name "Net-(U1-Pad2)")
      (node (ref U1) (pin 2)))
    (net (code 23) (name "Net-(U1-Pad9)")
      (node (ref U1) (pin 9)))
    (net (code 24) (name "Net-(U1-Pad10)")
      (node (ref U1) (pin 10)))
    (net (code 25) (name "Net-(U1-Pad11)")
      (node (ref U1) (pin 11)))
    (net (code 26) (name "Net-(U1-Pad32)")
      (node (ref U1) (pin 32)))
    (net (code 27) (name "Net-(U1-Pad23)")
      (node (ref U1) (pin 23)))
    (net (code 28) (name "Net-(U1-Pad14)")
      (node (ref U1) (pin 14)))
    (net (code 29) (name "Net-(U1-Pad24)")
      (node (ref U1) (pin 24)))
    (net (code 30) (name "Net-(U1-Pad25)")
      (node (ref U1) (pin 25)))
    (net (code 31) (name "Net-(U1-Pad26)")
      (node (ref U1) (pin 26)))
    (net (code 32) (name "Net-(U1-Pad19)")
      (node (ref U1) (pin 19)))
    (net (code 33) (name "Net-(U1-Pad1)")
      (node (ref U1) (pin 1)))))